(module PinSocket_1x03_P2.54mm_Horizontal (layer F.Cu) (tedit 5BB37CA0)
  (descr "Through hole angled socket strip, 1x03, 2.54mm pitch, 8.51mm socket length, single row (from Kicad 4.0.7), script generated")
  (tags "Through hole angled socket strip THT 1x03 2.54mm single row")
  (fp_text reference P13 (at -11.983 2.619) (layer F.SilkS)
    (effects (font (size 1 1) (thickness 0.15)))
  )
  (fp_text value CONN_01X03 (at -4.38 7.85) (layer F.Fab)
    (effects (font (size 1 1) (thickness 0.15)))
  )
  (fp_line (start -10.03 -1.27) (end -2.49 -1.27) (layer F.Fab) (width 0.1))
  (fp_line (start -2.49 -1.27) (end -1.52 -0.3) (layer F.Fab) (width 0.1))
  (fp_line (start -1.52 -0.3) (end -1.52 6.35) (layer F.Fab) (width 0.1))
  (fp_line (start -1.52 6.35) (end -10.03 6.35) (layer F.Fab) (width 0.1))
  (fp_line (start -10.03 6.35) (end -10.03 -1.27) (layer F.Fab) (width 0.1))
  (fp_line (start 0 -0.3) (end -1.52 -0.3) (layer F.Fab) (width 0.1))
  (fp_line (start -1.52 0.3) (end 0 0.3) (layer F.Fab) (width 0.1))
  (fp_line (start 0 0.3) (end 0 -0.3) (layer F.Fab) (width 0.1))
  (fp_line (start 0 2.24) (end -1.52 2.24) (layer F.Fab) (width 0.1))
  (fp_line (start -1.52 2.84) (end 0 2.84) (layer F.Fab) (width 0.1))
  (fp_line (start 0 2.84) (end 0 2.24) (layer F.Fab) (width 0.1))
  (fp_line (start 0 4.78) (end -1.52 4.78) (layer F.Fab) (width 0.1))
  (fp_line (start -1.52 5.38) (end 0 5.38) (layer F.Fab) (width 0.1))
  (fp_line (start 0 5.38) (end 0 4.78) (layer F.Fab) (width 0.1))
  (fp_line (start -10.09 -1.21) (end -1.46 -1.21) (layer F.SilkS) (width 0.12))
  (fp_line (start -10.09 -1.091905) (end -1.46 -1.091905) (layer F.SilkS) (width 0.12))
  (fp_line (start -10.09 -0.97381) (end -1.46 -0.97381) (layer F.SilkS) (width 0.12))
  (fp_line (start -10.09 -0.855715) (end -1.46 -0.855715) (layer F.SilkS) (width 0.12))
  (fp_line (start -10.09 -0.73762) (end -1.46 -0.73762) (layer F.SilkS) (width 0.12))
  (fp_line (start -10.09 -0.619525) (end -1.46 -0.619525) (layer F.SilkS) (width 0.12))
  (fp_line (start -10.09 -0.50143) (end -1.46 -0.50143) (layer F.SilkS) (width 0.12))
  (fp_line (start -10.09 -0.383335) (end -1.46 -0.383335) (layer F.SilkS) (width 0.12))
  (fp_line (start -10.09 -0.26524) (end -1.46 -0.26524) (layer F.SilkS) (width 0.12))
  (fp_line (start -10.09 -0.147145) (end -1.46 -0.147145) (layer F.SilkS) (width 0.12))
  (fp_line (start -10.09 -0.02905) (end -1.46 -0.02905) (layer F.SilkS) (width 0.12))
  (fp_line (start -10.09 0.089045) (end -1.46 0.089045) (layer F.SilkS) (width 0.12))
  (fp_line (start -10.09 0.20714) (end -1.46 0.20714) (layer F.SilkS) (width 0.12))
  (fp_line (start -10.09 0.325235) (end -1.46 0.325235) (layer F.SilkS) (width 0.12))
  (fp_line (start -10.09 0.44333) (end -1.46 0.44333) (layer F.SilkS) (width 0.12))
  (fp_line (start -10.09 0.561425) (end -1.46 0.561425) (layer F.SilkS) (width 0.12))
  (fp_line (start -10.09 0.67952) (end -1.46 0.67952) (layer F.SilkS) (width 0.12))
  (fp_line (start -10.09 0.797615) (end -1.46 0.797615) (layer F.SilkS) (width 0.12))
  (fp_line (start -10.09 0.91571) (end -1.46 0.91571) (layer F.SilkS) (width 0.12))
  (fp_line (start -10.09 1.033805) (end -1.46 1.033805) (layer F.SilkS) (width 0.12))
  (fp_line (start -10.09 1.1519) (end -1.46 1.1519) (layer F.SilkS) (width 0.12))
  (fp_line (start -1.46 -0.36) (end -1.11 -0.36) (layer F.SilkS) (width 0.12))
  (fp_line (start -1.46 0.36) (end -1.11 0.36) (layer F.SilkS) (width 0.12))
  (fp_line (start -1.46 2.18) (end -1.05 2.18) (layer F.SilkS) (width 0.12))
  (fp_line (start -1.46 2.9) (end -1.05 2.9) (layer F.SilkS) (width 0.12))
  (fp_line (start -1.46 4.72) (end -1.05 4.72) (layer F.SilkS) (width 0.12))
  (fp_line (start -1.46 5.44) (end -1.05 5.44) (layer F.SilkS) (width 0.12))
  (fp_line (start -10.09 1.27) (end -1.46 1.27) (layer F.SilkS) (width 0.12))
  (fp_line (start -10.09 3.81) (end -1.46 3.81) (layer F.SilkS) (width 0.12))
  (fp_line (start -10.09 -1.33) (end -1.46 -1.33) (layer F.SilkS) (width 0.12))
  (fp_line (start -1.46 -1.33) (end -1.46 6.41) (layer F.SilkS) (width 0.12))
  (fp_line (start -10.09 6.41) (end -1.46 6.41) (layer F.SilkS) (width 0.12))
  (fp_line (start -10.09 -1.33) (end -10.09 6.41) (layer F.SilkS) (width 0.12))
  (fp_line (start 1.11 -1.33) (end 1.11 0) (layer F.SilkS) (width 0.12))
  (fp_line (start 0 -1.33) (end 1.11 -1.33) (layer F.SilkS) (width 0.12))
  (fp_line (start 1.75 -1.8) (end -10.55 -1.8) (layer F.CrtYd) (width 0.05))
  (fp_line (start -10.55 -1.8) (end -10.55 6.85) (layer F.CrtYd) (width 0.05))
  (fp_line (start -10.55 6.85) (end 1.75 6.85) (layer F.CrtYd) (width 0.05))
  (fp_line (start 1.75 6.85) (end 1.75 -1.8) (layer F.CrtYd) (width 0.05))
  (fp_text user %R (at -5.775 2.54) (layer F.Fab)
    (effects (font (size 1 1) (thickness 0.15)))
  )
  (pad 1 thru_hole rect (at 0 0) (size 2 2) (drill 1) (layers *.Cu *.Mask))
  (pad 2 thru_hole oval (at 0 2.54) (size 2.4 1.8) (drill 1) (layers *.Cu *.Mask))
  (pad 3 thru_hole oval (at 0 5.08) (size 2.4 1.8) (drill 1) (layers *.Cu *.Mask))
  (model ${KISYS3DMOD}/Connector_PinSocket_2.54mm.3dshapes/PinSocket_1x03_P2.54mm_Horizontal.wrl
    (at (xyz 0 0 0))
    (scale (xyz 1 1 1))
    (rotate (xyz 0 0 0))
  )
)
