(module windlog:button_touch_6x6mm (layer F.Cu) (tedit 5BB4BF7A)
  (fp_text reference SW2 (at -0.635 6.35) (layer F.SilkS)
    (effects (font (size 1 1) (thickness 0.15)))
  )
  (fp_text value PB_SD_SAVE (at -1.27 5.08) (layer F.SilkS)
    (effects (font (size 0.75 0.75) (thickness 0.15)))
  )
  (fp_line (start -2.99 4.1) (end -3 -1.35) (layer F.SilkS) (width 0.15))
  (fp_line (start 3.01 4.11) (end -2.99 4.11) (layer F.SilkS) (width 0.15))
  (fp_line (start 3 -1.33) (end 3 4.11) (layer F.SilkS) (width 0.15))
  (fp_line (start -3.01 -1.34) (end 2.99 -1.34) (layer F.SilkS) (width 0.15))
  (pad 3 thru_hole circle (at -3.47 2.26) (size 2.5 2.5) (drill 1.5) (layers *.Cu *.Mask F.SilkS))
  (pad 4 thru_hole circle (at 3.53 2.26) (size 2.5 2.5) (drill 1.5) (layers *.Cu *.Mask F.SilkS))
  (pad 1 thru_hole circle (at 2.23 -0.21) (size 2 2) (drill 1) (layers *.Cu *.Mask F.SilkS))
  (pad 2 thru_hole circle (at -2.27 -0.21) (size 2 2) (drill 1) (layers *.Cu *.Mask F.SilkS))
)
