(module Package_TO_SOT_SMD:SOT-89-3_Handsoldering (layer F.Cu) (tedit 5A02FF57)
  (descr "SOT-89-3 Handsoldering")
  (tags "SOT-89-3 Handsoldering")
  (attr smd)
  (fp_text reference U4 (at -5.375 -0.019 90) (layer F.SilkS)
    (effects (font (size 1 1) (thickness 0.15)))
  )
  (fp_text value MCP1700 (at 0.5 3.15) (layer F.Fab)
    (effects (font (size 1 1) (thickness 0.15)))
  )
  (fp_line (start -0.13 -2.3) (end 1.68 -2.3) (layer F.Fab) (width 0.1))
  (fp_line (start -0.92 2.3) (end -0.92 -1.51) (layer F.Fab) (width 0.1))
  (fp_line (start 1.68 2.3) (end -0.92 2.3) (layer F.Fab) (width 0.1))
  (fp_line (start 1.68 -2.3) (end 1.68 2.3) (layer F.Fab) (width 0.1))
  (fp_line (start -0.92 -1.51) (end -0.13 -2.3) (layer F.Fab) (width 0.1))
  (fp_line (start 1.78 -2.4) (end 1.78 -1.2) (layer F.SilkS) (width 0.12))
  (fp_line (start -2.22 -2.4) (end 1.78 -2.4) (layer F.SilkS) (width 0.12))
  (fp_line (start 1.78 2.4) (end -0.92 2.4) (layer F.SilkS) (width 0.12))
  (fp_line (start 1.78 1.2) (end 1.78 2.4) (layer F.SilkS) (width 0.12))
  (fp_line (start -3.5 -2.55) (end -3.5 2.55) (layer F.CrtYd) (width 0.05))
  (fp_line (start 4.25 -2.55) (end -3.5 -2.55) (layer F.CrtYd) (width 0.05))
  (fp_line (start 4.25 2.55) (end 4.25 -2.55) (layer F.CrtYd) (width 0.05))
  (fp_line (start -3.5 2.55) (end 4.25 2.55) (layer F.CrtYd) (width 0.05))
  (fp_text user %R (at 0.38 0 90) (layer F.Fab)
    (effects (font (size 0.6 0.6) (thickness 0.09)))
  )
  (pad 2 smd trapezoid (at -0.37 0 90) (size 1.5 0.75) (rect_delta 0 0.5 ) (layers F.Cu F.Paste F.Mask))
  (pad 2 smd rect (at 1.98 0 270) (size 2 4) (layers F.Cu F.Paste F.Mask))
  (pad 3 smd rect (at -1.98 1.5 270) (size 1 2.5) (layers F.Cu F.Paste F.Mask))
  (pad 2 smd rect (at -1.98 0 270) (size 1 2.5) (layers F.Cu F.Paste F.Mask))
  (pad 1 smd rect (at -1.98 -1.5 270) (size 1 2.5) (layers F.Cu F.Paste F.Mask))
  (model ${KISYS3DMOD}/Package_TO_SOT_SMD.3dshapes/SOT-89-3.wrl
    (at (xyz 0 0 0))
    (scale (xyz 1 1 1))
    (rotate (xyz 0 0 0))
  )
)
